{
  "tracks": {
    "href": "https://api.spotify.com/v1/search?query=lluvia+life+demo+three&type=track&locale=en-US%2Cen%3Bq%3D0.5&offset=0&limit=1",
    "items": [
      {
        "album": {
          "album_type": "single",
          "artists": [
            {
              "external_urls": {
                "spotify": "https://open.spotify.com/artist/3bxjlp8BLX4eAAubsK06gt"
              },
              "href": "https://api.spotify.com/v1/artists/3bxjlp8BLX4eAAubsK06gt",
              "id": "3bxjlp8BLX4eAAubsK06gt",
              "name": "life",
              "type": "artist",
              "uri": "spotify:artist:3bxjlp8BLX4eAAubsK06gt"
            }
          ],
          "external_urls": {
            "spotify": "https://open.spotify.com/album/3RJwmsTj4HG0hHu0xWzbiM"
          },
          "href": "https://api.spotify.com/v1/albums/3RJwmsTj4HG0hHu0xWzbiM",
          "id": "3RJwmsTj4HG0hHu0xWzbiM",
          "images": [
            {
              "height": 640,
              "url": "https://i.scdn.co/image/ab67616d0000b2738bf9eeb9ba4d440fec819dff",
              "width": 640
            },
            {
              "height": 300,
              "url": "https://i.scdn.co/image/ab67616d00001e028bf9eeb9ba4d440fec819dff",
              "width": 300
            },
            {
              "height": 64,
              "url": "https://i.scdn.co/image/ab67616d000048518bf9eeb9ba4d440fec819dff",
              "width": 64
            }
          ],
          "name": "demo three",
          "release_date": "2017",
          "release_date_precision": "year",
          "total_tracks": 4,
          "type": "album",
          "uri": "spotify:album:3RJwmsTj4HG0hHu0xWzbiM"
        },
        "artists": [
          {
            "external_urls": {
              "spotify": "https://open.spotify.com/artist/3bxjlp8BLX4eAAubsK06gt"
            },
            "href": "https://api.spotify.com/v1/artists/3bxjlp8BLX4eAAubsK06gt",
            "id": "3bxjlp8BLX4eAAubsK06gt",
            "name": "life",
            "type": "artist",
            "uri": "spotify:artist:3bxjlp8BLX4eAAubsK06gt"
          }
        ],
        "disc_number": 1,
        "duration_ms": 629763,
        "explicit": false,
        "external_ids": {
          "isrc": "GBSMU7720577"
        },
        "external_urls": {
          "spotify": "https://open.spotify.com/track/4pAyBm0b6xmmgJlQVzioOo"
        },
        "href": "https://api.spotify.com/v1/tracks/4pAyBm0b6xmmgJlQVzioOo",
        "id": "4pAyBm0b6xmmgJlQVzioOo",
        "is_local": false,
        "name": "lluvia",
        "popularity": 11,
        "preview_url": "https://p.scdn.co/mp3-preview/7c9482bc1d3f1b47582c2979a9791893c7787dc2?cid=774b29d4f13844c495f206cafdad9c86",
        "track_number": 4,
        "type": "track",
        "uri": "spotify:track:4pAyBm0b6xmmgJlQVzioOo"
      }
    ],
    "limit": 1,
    "next": "https://api.spotify.com/v1/search?query=lluvia+life+demo+three&type=track&locale=en-US%2Cen%3Bq%3D0.5&offset=1&limit=1",
    "offset": 0,
    "previous": null,
    "total": 1001
  }
}
